<?xml version="1.0" encoding="UTF-8"?>
<svg width="28px" height="28px" viewBox="0 0 28 28" version="1.1" xmlns="http://www.w3.org/2000/svg" xmlns:xlink="http://www.w3.org/1999/xlink">
    <!-- Generator: Sketch 52 (66869) - http://www.bohemiancoding.com/sketch -->
    <title>Artboard</title>
    <desc>Created with Sketch.</desc>
    <g id="Artboard" stroke="none" stroke-width="1" fill="none" fill-rule="evenodd">
        <g id="Group">
            <polygon id="path84" fill="#C1133C" transform="translate(14.059665, 14.093293) scale(-1, 1) rotate(-180.000000) translate(-14.059665, -14.093293) " points="0.243419111 27.9294286 27.8759114 27.9294286 27.8759114 0.2571567 0.243419111 0.2571567"></polygon>
            <g id="g86" transform="translate(21.890331, 13.912259) scale(-1, 1) rotate(-180.000000) translate(-21.890331, -13.912259) translate(15.890331, 4.412259)" fill="#F39900">
                <path d="M11.9854662,8.57142431 L0.269958358,18.4439908 C0.269102253,18.4439908 0.267675412,18.4425623 0.267104675,18.4414194 L0.267104675,0.0928570966 L11.9854662,0.0902856694 L11.9854662,8.57142431 Z" id="path88"></path>
            </g>
            <g id="g90" transform="translate(9.679753, 14.106031) scale(-1, 1) rotate(-180.000000) translate(-9.679753, -14.106031) translate(0.179753, 4.606031)" fill="#FFFFFF">
                <path d="M15.9806216,15.999992 L15.9797655,18.6394193 C15.1638977,17.7248483 13.1115293,16.1625634 10.5863057,15.7979921 L10.5863057,13.7559932 L8.60984525,12.8937079 L8.60984525,11.135423 L0.0636371181,7.83028182 L0.0636371181,0.284285573 L18.0061654,0.284285573 L18.0061654,16.8474202 L15.9806216,15.999992 Z" id="path92"></path>
            </g>
            <g id="g94" transform="translate(5.711515, 15.719461) scale(-1, 1) rotate(-180.000000) translate(-5.711515, -15.719461) translate(0.211515, 11.719461)" fill="#C1133C">
                <path d="M10.558625,7.99999602 L8.93345284,7.38428204 C8.74796348,7.31256779 8.59757441,7.10456789 8.59757441,6.91999656 L8.59900126,5.65942576 C8.58501821,5.45971157 8.4557464,5.28571166 8.25456179,5.22628311 L0.0316758749,2.05399898 L0.0316758749,0.125714223 L8.28081566,3.34028405 C8.46544892,3.4119983 8.61526725,3.62056963 8.61526725,3.80571239 L8.61526725,5.05599748 C8.62753808,5.25371167 8.75566842,5.42114016 8.93345284,5.48685441 L10.558625,6.10513982 L10.558625,7.99999602 Z" id="path96"></path>
            </g>
            <g id="g98" transform="translate(5.711515, 19.423002) scale(-1, 1) rotate(-180.000000) translate(-5.711515, -19.423002) translate(0.211515, 15.423002)" fill="#C1133C">
                <path d="M10.558625,7.99999602 L8.93345284,7.38485347 C8.74796348,7.31313922 8.59757441,7.10456789 8.59757441,6.9188537 L8.59900126,5.6582829 C8.58501821,5.46056871 8.4557464,5.28542594 8.25456179,5.22514026 L0.0316758749,1.99942758 L0.0316758749,0.105142805 L8.28081566,3.34028405 C8.46544892,3.41171259 8.61526725,3.62056963 8.61526725,3.80628382 L8.61526725,5.05514034 C8.62753808,5.25256881 8.75566842,5.42085445 8.93345284,5.48685441 L10.558625,6.10513982 L10.558625,7.99999602 Z" id="path100"></path>
            </g>
            <polygon id="path102" fill="#074990" transform="translate(14.059665, 25.623573) scale(-1, 1) rotate(-180.000000) translate(-14.059665, -25.623573) " points="0.243419111 27.9294286 27.8759114 27.9294286 27.8759114 23.3177166 0.243419111 23.3177166"></polygon>
            <g id="g104" transform="translate(7.405747, 25.547429) scale(-1, 1) rotate(-180.000000) translate(-7.405747, -25.547429) translate(6.405747, 24.047429)" fill="#FFFFFF" fill-rule="nonzero">
                <path d="M1.9975777,2.85714144 L1.56524481,2.80971289 L1.38717503,1.86828478 C1.2427787,1.92971333 1.17457569,1.94657046 1.07127238,1.94657046 C0.572163326,1.94657046 0.141828017,1.36199932 0.126988868,0.670285381 C0.120425398,0.359714107 0.239423956,0.170571344 0.453735506,0.170571344 C0.57815606,0.170571344 0.762218576,0.248857019 0.910610062,0.366571246 C0.994222957,0.433999784 1.06385281,0.505714034 1.11835814,0.583428281 C1.14090223,0.61228541 1.17058053,0.658571101 1.2076784,0.723428211 L1.12178256,0.231142742 L1.52443715,0.231142742 L1.9975777,2.85714144 Z M1.32953064,1.5434278 L1.2921474,1.33685648 C1.26503742,1.16171371 1.12035572,0.926856682 0.945424988,0.758571051 C0.835843583,0.655142531 0.71941334,0.583428281 0.659771377,0.583428281 C0.598417205,0.583428281 0.564458384,0.648285392 0.567312066,0.755142481 C0.570736485,0.930285251 0.656346958,1.20142797 0.747664796,1.35828504 C0.847829049,1.52257067 0.996505903,1.63285633 1.11407762,1.63285633 C1.19340999,1.63285633 1.26275447,1.60514206 1.32953064,1.5434278 Z" id="path106"></path>
            </g>
            <g id="g108" transform="translate(9.520925, 25.882801) scale(-1, 1) rotate(-180.000000) translate(-9.520925, -25.882801) translate(8.520925, 24.882801)" fill="#FFFFFF" fill-rule="nonzero">
                <path d="M1.42684121,1.42857072 C1.43197784,1.65742775 1.27502531,1.77542769 0.963688555,1.77542769 C0.411501006,1.77542769 0.0194050405,1.29742793 0.00342441891,0.609142554 C-0.00542199661,0.216285607 0.146964645,0.0202857042 0.463723394,0.0202857042 C0.606978252,0.0202857042 0.774774779,0.0622856833 0.916032059,0.137999931 C0.966542238,0.162285634 1.02761104,0.201999899 1.10408973,0.255999873 C1.19854662,0.323142696 1.24106649,0.351714111 1.34379905,0.433999784 L1.18456358,0.687428229 C0.952844562,0.515714029 0.894629441,0.47714262 0.798460343,0.437428354 C0.725976809,0.408856939 0.640080968,0.391428377 0.593851313,0.391428377 C0.537063033,0.391428377 0.466577077,0.426571216 0.43518657,0.47714262 C0.414925425,0.509142604 0.404937536,0.544285443 0.392381334,0.626571117 L1.12206793,1.00857093 C1.32981601,1.1191423 1.42227532,1.24342795 1.42684121,1.42857072 M1.01534021,1.33285648 C1.01419873,1.30057078 1.00877674,1.27914222 0.99051317,1.23342796 L0.424342577,0.918856686 C0.500821266,1.15457085 0.546480185,1.25028509 0.633802867,1.35028504 C0.710281556,1.44057071 0.793038346,1.4868564 0.8752244,1.4868564 C0.968254447,1.4868564 1.01648168,1.43285643 1.01534021,1.33285648" id="path110"></path>
            </g>
            <g id="g112" transform="translate(10.969768, 25.918515) scale(-1, 1) rotate(-180.000000) translate(-10.969768, -25.918515) translate(9.969768, 24.918515)" fill="#FFFFFF">
                <path d="M1.42684121,1.71428486 C1.26874721,1.77914197 1.12007035,1.81114196 0.94513962,1.81114196 C0.549619235,1.81114196 0.317614854,1.63257062 0.31019528,1.32657077 C0.307341597,1.22657082 0.338446736,1.14057086 0.397232594,1.06142804 C0.43518657,1.01571378 0.480560121,0.965428091 0.532497141,0.914856688 C0.550760708,0.901428123 0.616680772,0.84399958 0.728545123,0.74057106 C0.814726333,0.665999669 0.845831471,0.612856838 0.844689998,0.547999727 C0.842407052,0.462285484 0.763074681,0.404856941 0.631234553,0.404856941 C0.527931249,0.404856941 0.421203526,0.4302855 0.24513132,0.494285468 L0.119569294,0.148571355 C0.257972891,0.109714231 0.311051384,0.0979999512 0.446030563,0.0771428188 C0.538489874,0.0625713974 0.645217597,0.0559999721 0.713420607,0.0559999721 C1.05814544,0.0559999721 1.29072056,0.251999875 1.2984255,0.554856867 C1.30156455,0.729999637 1.22965176,0.841142439 0.987944856,1.04771376 C0.799316448,1.20428512 0.778199198,1.22657082 0.747664796,1.27914222 C0.733681752,1.30114221 0.72740365,1.32657077 0.72740365,1.35114218 C0.729401228,1.42914215 0.809304336,1.47628498 0.947707934,1.47628498 C1.06242597,1.47628498 1.13576561,1.45428499 1.2984255,1.36857075 L1.42684121,1.71428486 Z" id="path114"></path>
            </g>
            <g id="g116" transform="translate(12.484131, 25.547429) scale(-1, 1) rotate(-180.000000) translate(-12.484131, -25.547429) translate(11.484131, 24.047429)" fill="#FFFFFF" fill-rule="nonzero">
                <path d="M1.9975777,2.85714144 L1.56438871,2.80971289 L1.38631892,1.86828478 C1.24220796,1.92971333 1.17371958,1.94657046 1.07127238,1.94657046 C0.572163326,1.94657046 0.140686544,1.36199932 0.124705922,0.670285381 C0.118142452,0.359714107 0.239138587,0.170571344 0.452023296,0.170571344 C0.577299955,0.170571344 0.760506367,0.248857019 0.909753958,0.366571246 C0.993937589,0.433999784 1.0629967,0.505714034 1.11835814,0.583428281 C1.14004613,0.61228541 1.16972443,0.658571101 1.20739303,0.723428211 L1.12007035,0.231142742 L1.52243957,0.231142742 L1.9975777,2.85714144 Z M1.32867454,1.5434278 L1.2921474,1.33685648 C1.26303984,1.16171371 1.11835814,0.926856682 0.943998147,0.758571051 C0.834131373,0.655142531 0.718557235,0.583428281 0.658059168,0.583428281 C0.598131837,0.583428281 0.563602279,0.648285392 0.566455962,0.755142481 C0.570451117,0.930285251 0.654634749,1.20142797 0.746808691,1.35828504 C0.848114417,1.52257067 0.995649799,1.63285633 1.11322151,1.63285633 C1.19169778,1.63285633 1.26303984,1.60514206 1.32867454,1.5434278 Z" id="path118"></path>
            </g>
            <g id="g120" transform="translate(14.598453, 25.882801) scale(-1, 1) rotate(-180.000000) translate(-14.598453, -25.882801) translate(13.598453, 24.882801)" fill="#FFFFFF" fill-rule="nonzero">
                <path d="M1.42684121,1.42857072 C1.43197784,1.65742775 1.27388384,1.77542769 0.963688555,1.77542769 C0.410359533,1.77542769 0.0182635675,1.29742793 0.00342441891,0.609142554 C-0.00542199661,0.216285607 0.146679277,0.0202857042 0.463438026,0.0202857042 C0.606978252,0.0202857042 0.774774779,0.0622856833 0.915175954,0.137999931 C0.96625687,0.162285634 1.02846715,0.201999899 1.10408973,0.255999873 C1.19711978,0.323142696 1.24192259,0.351714111 1.34294295,0.433999784 L1.18456358,0.687428229 C0.952844562,0.515714029 0.894629441,0.47714262 0.797604238,0.437428354 C0.725976809,0.408856939 0.640080968,0.391428377 0.592995208,0.391428377 C0.537063033,0.391428377 0.466291708,0.426571216 0.43518657,0.47714262 C0.413783952,0.509142604 0.403796063,0.544285443 0.392381334,0.626571117 L1.12092646,1.00857093 C1.32981601,1.1191423 1.42227532,1.24342795 1.42684121,1.42857072 M1.01419873,1.33285648 C1.01305726,1.30057078 1.00877674,1.27914222 0.991369275,1.23342796 L0.424342577,0.918856686 C0.500821266,1.15457085 0.545338712,1.25028509 0.633802867,1.35028504 C0.710566924,1.44057071 0.793038346,1.4868564 0.874653664,1.4868564 C0.968254447,1.4868564 1.01648168,1.43285643 1.01419873,1.33285648" id="path122"></path>
            </g>
            <g id="g124" transform="translate(17.263764, 26.089143) scale(-1, 1) rotate(-180.000000) translate(-17.263764, -26.089143) translate(16.263764, 25.089143)" fill="#FFFFFF">
                <polygon id="path126" points="1.14147297 1.999999 0.938005414 1.999999 0.0750518478 1.68571345 0.171506314 1.34999933 0.628095502 1.52799924 0.40265459 0.272857007 0.826997167 0.272857007"></polygon>
            </g>
            <g id="g128" transform="translate(18.480745, 25.365086) scale(-1, 1) rotate(-180.000000) translate(-18.480745, -25.365086) translate(17.480745, 23.865086)" fill="#FFFFFF" fill-rule="nonzero">
                <path d="M1.9975777,1.999999 C2.00442654,2.27514172 1.77984173,2.4422845 1.40201418,2.4422845 C0.927732157,2.4422845 0.591568367,2.22114175 0.584148793,1.90399905 C0.580724374,1.76085627 0.648642016,1.60114206 0.759650262,1.48257069 L0.909468589,1.32599934 L0.605836779,1.12571373 C0.410930269,0.997713789 0.254833841,0.741142488 0.249697212,0.534285448 C0.242277638,0.190857048 0.476279597,0.00914285259 0.921739424,0.00914285259 C1.49219054,0.00914285259 1.89084998,0.265999868 1.89912565,0.644571108 C1.90255007,0.808571026 1.81123224,0.99428522 1.65741875,1.12571373 L1.42598511,1.32599934 L1.65485044,1.48257069 C1.82550065,1.60114206 1.89427439,1.67599917 1.95134804,1.80057053 C1.9795995,1.8645705 1.99700696,1.93599904 1.9975777,1.999999 M1.54983493,1.91428476 C1.54783735,1.82257052 1.50018085,1.73571342 1.42455827,1.68599916 L1.21766629,1.55057066 L1.08982132,1.70799915 C1.05215271,1.75771341 1.02818178,1.82571338 1.02932325,1.88971335 C1.03274767,2.02857042 1.16373169,2.13199894 1.33038675,2.13199894 C1.46308298,2.13199894 1.55297398,2.04285613 1.54983493,1.91428476 M1.44738773,0.683142517 C1.4431072,0.487999757 1.2427787,0.316285557 1.02161831,0.316285557 C0.822716644,0.316285557 0.689164306,0.429714072 0.694015566,0.598285417 C0.69658388,0.734571063 0.800172552,0.897428125 0.937720045,0.99085665 L1.1403315,1.12571373 L1.35293084,0.923142398 C1.41628259,0.861428143 1.4493853,0.779999612 1.44738773,0.683142517" id="path130"></path>
            </g>
            <g id="g132" transform="translate(20.326735, 26.026772) scale(-1, 1) rotate(-180.000000) translate(-20.326735, -26.026772) translate(19.326735, 24.526772)" fill="#FFFFFF">
                <path d="M1.71220946,2.57142729 L0.635800445,2.57142729 L0.41892058,1.35828504 L0.644076124,1.35828504 C0.747379427,1.35828504 0.891775758,1.31971363 0.966827606,1.27342794 C1.03731356,1.22685653 1.07755048,1.13028515 1.07526754,1.00914235 C1.06670649,0.70542822 0.844119262,0.456571201 0.581009742,0.456571201 C0.476850333,0.456571201 0.377542185,0.481714046 0.20460903,0.553142582 L0.0759079525,0.217428463 C0.269958358,0.142285643 0.391239861,0.117142799 0.544767975,0.117142799 C1.06413818,0.117142799 1.509598,0.548571156 1.5212981,1.06228519 C1.5267201,1.31199935 1.42741195,1.50885639 1.24705922,1.59371349 C1.15003402,1.6402849 1.08211638,1.65542775 0.90119291,1.67199917 L0.997932745,2.21142747 L1.6471455,2.21142747 L1.71220946,2.57142729 Z" id="path134"></path>
            </g>
            <g id="g136" transform="translate(21.866982, 26.026772) scale(-1, 1) rotate(-180.000000) translate(-21.866982, -26.026772) translate(20.866982, 24.526772)" fill="#FFFFFF">
                <path d="M1.71220946,2.57142729 L0.636085813,2.57142729 L0.419205948,1.35828504 L0.644361492,1.35828504 C0.746808691,1.35828504 0.892917231,1.31971363 0.967112974,1.27342794 C1.03759893,1.22685653 1.07640901,1.13028515 1.07498217,1.00914235 C1.0675626,0.70542822 0.844119262,0.456571201 0.581009742,0.456571201 C0.476850333,0.456571201 0.377827553,0.481714046 0.204894398,0.553142582 L0.0761933208,0.217428463 C0.270243726,0.142285643 0.390098388,0.117142799 0.544482607,0.117142799 C1.06413818,0.117142799 1.50988337,0.548571156 1.52158347,1.06228519 C1.52643473,1.31199935 1.42712658,1.50885639 1.24762996,1.59371349 C1.15003402,1.6402849 1.08240174,1.65542775 0.900336806,1.67199917 L0.997932745,2.21142747 L1.64771623,2.21142747 L1.71220946,2.57142729 Z" id="path138"></path>
            </g>
        </g>
    </g>
</svg>